{
	"IcoMoonType": "selection",
	"icons": [
		{
			"icon": {
				"paths": [
					"M1002.268 494.346h-575.628c6.103-40.743 20.583-85.258 20.583-85.258s-66.573 40.995-89.772 54.131c-23.142 13.095-95.615 48.736-95.615 48.736s70.346 34.713 92.755 47.4c23.948 13.543 92.632 57.186 92.632 57.186s-16.688-48.859-21.773-89.601h576.817v-32.594z"
				],
				"attrs": [],
				"isMulticolor": false,
				"width": 1263,
				"grid": 0,
				"tags": [
					"arrow-2-right"
				]
			},
			"attrs": [],
			"properties": {
				"order": 66,
				"id": 14,
				"prevSize": 32,
				"code": 59648,
				"name": "arrow-2-right"
			},
			"setIdx": 0,
			"setId": 32,
			"iconIdx": 0
		},
		{
			"icon": {
				"paths": [
					"M611.139 143.96v574.348c-32.594-6.103-84.345-20.575-84.345-20.575s41.452 66.573 54.587 89.78c13.095 23.142 48.964 95.615 48.964 95.615s34.835-70.362 47.53-92.755c13.543-23.948 60.397-92.641 60.397-92.641s-53.797 16.672-86.391 21.748v-575.522h-40.743z"
				],
				"attrs": [],
				"isMulticolor": false,
				"width": 1263,
				"grid": 0,
				"tags": [
					"arrow-down"
				]
			},
			"attrs": [],
			"properties": {
				"order": 67,
				"id": 13,
				"prevSize": 32,
				"code": 59649,
				"name": "arrow-down"
			},
			"setIdx": 0,
			"setId": 32,
			"iconIdx": 1
		},
		{
			"icon": {
				"paths": [
					"M843.184 509.649l-394.771-394.763c-7.888-7.888-20.681-7.888-28.569 0s-7.888 20.681 0 28.561l380.495 380.487-356.62 356.62c-7.896 7.888-7.896 20.673 0 28.561 3.944 3.928 9.11 5.924 14.276 5.924 5.174 0 10.349-1.972 14.284-5.924l370.904-370.904c7.871-7.88 7.871-20.673 0-28.561z"
				],
				"attrs": [],
				"isMulticolor": false,
				"width": 1263,
				"grid": 0,
				"tags": [
					"arrow-left"
				]
			},
			"attrs": [],
			"properties": {
				"order": 68,
				"id": 12,
				"prevSize": 32,
				"code": 59650,
				"name": "arrow-left"
			},
			"setIdx": 0,
			"setId": 32,
			"iconIdx": 2
		},
		{
			"icon": {
				"paths": [
					"M419.852 514.351l394.763 394.763c7.88 7.896 20.673 7.896 28.569 0 7.88-7.888 7.88-20.673 0-28.561l-380.495-380.487 356.612-356.62c7.904-7.88 7.904-20.673 0-28.561-3.936-3.936-9.11-5.916-14.276-5.916-5.174 0-10.34 1.972-14.284 5.916l-370.888 370.904c-7.896 7.88-7.896 20.673 0 28.561z"
				],
				"attrs": [],
				"isMulticolor": false,
				"width": 1263,
				"grid": 0,
				"tags": [
					"arrow-right"
				]
			},
			"attrs": [],
			"properties": {
				"order": 69,
				"id": 11,
				"prevSize": 32,
				"code": 59651,
				"name": "arrow-right"
			},
			"setIdx": 0,
			"setId": 32,
			"iconIdx": 3
		},
		{
			"icon": {
				"paths": [
					"M660.030 885.475v-579.311c32.594 6.103 78.478 20.583 78.478 20.583s-44.401-66.573-57.537-89.772c-13.095-23.142-50.431-95.615-50.431-95.615s-35.568 70.346-48.264 92.746c-13.535 23.957-54.88 92.641-54.88 92.641s59.297-16.688 91.891-21.773v580.492l40.743 0.008z"
				],
				"attrs": [],
				"isMulticolor": false,
				"width": 1263,
				"grid": 0,
				"tags": [
					"arrow-up"
				]
			},
			"attrs": [],
			"properties": {
				"order": 70,
				"id": 10,
				"prevSize": 32,
				"code": 59652,
				"name": "arrow-up"
			},
			"setIdx": 0,
			"setId": 32,
			"iconIdx": 4
		},
		{
			"icon": {
				"paths": [
					"M105.931 38.029v945.228h1043.010v-945.228h-1043.010zM480.763 773.099v-473.103l315.12 236.527-315.12 236.576z"
				],
				"attrs": [],
				"isMulticolor": false,
				"width": 1263,
				"grid": 0,
				"tags": [
					"butt"
				]
			},
			"attrs": [],
			"properties": {
				"order": 71,
				"id": 9,
				"prevSize": 32,
				"code": 59653,
				"name": "butt"
			},
			"setIdx": 0,
			"setId": 32,
			"iconIdx": 5
		},
		{
			"icon": {
				"paths": [
					"M1095.316 79.823l-25.977-25.961-434.935 434.935-434.944-434.944-25.961 25.961 434.935 434.944-434.935 434.935 25.961 25.977 434.944-434.935 434.927 434.935 25.977-25.977-434.935-434.935z"
				],
				"attrs": [],
				"isMulticolor": false,
				"width": 1263,
				"grid": 0,
				"tags": [
					"close"
				]
			},
			"attrs": [],
			"properties": {
				"order": 72,
				"id": 8,
				"prevSize": 32,
				"code": 59654,
				"name": "close"
			},
			"setIdx": 0,
			"setId": 32,
			"iconIdx": 6
		},
		{
			"icon": {
				"paths": [
					"M448.169 738.802h244.456v236.307h-244.456v-236.307z",
					"M89.634 738.802h244.456v236.307h-244.456v-236.307z",
					"M806.703 738.802h252.604v236.307h-252.604v-236.307z",
					"M448.169 396.564h244.456v236.307h-244.456v-236.307z",
					"M1173.387 738.802h244.456v236.307h-244.456v-236.307z"
				],
				"attrs": [],
				"isMulticolor": false,
				"width": 1456,
				"grid": 0,
				"tags": [
					"comercial"
				]
			},
			"attrs": [],
			"properties": {
				"order": 73,
				"id": 7,
				"prevSize": 32,
				"code": 59655,
				"name": "comercial"
			},
			"setIdx": 0,
			"setId": 32,
			"iconIdx": 7
		},
		{
			"icon": {
				"paths": [
					"M741.515 624.723h244.456v236.307h-244.456v-236.307z",
					"M382.98 624.723h244.456v236.307h-244.456v-236.307z",
					"M741.515 274.336h244.456v236.307h-244.456v-236.307z"
				],
				"attrs": [],
				"isMulticolor": false,
				"width": 1456,
				"grid": 0,
				"tags": [
					"comp1"
				]
			},
			"attrs": [],
			"properties": {
				"order": 74,
				"id": 6,
				"prevSize": 32,
				"code": 59656,
				"name": "comp1"
			},
			"setIdx": 0,
			"setId": 32,
			"iconIdx": 8
		},
		{
			"icon": {
				"paths": [
					"M749.664 290.633h244.456v228.159h-244.456v-228.159z",
					"M382.98 632.871h252.604v228.159h-252.604v-228.159z"
				],
				"attrs": [],
				"isMulticolor": false,
				"width": 1456,
				"grid": 0,
				"tags": [
					"comp2"
				]
			},
			"attrs": [],
			"properties": {
				"order": 75,
				"id": 5,
				"prevSize": 32,
				"code": 59657,
				"name": "comp2"
			},
			"setIdx": 0,
			"setId": 32,
			"iconIdx": 9
		},
		{
			"icon": {
				"paths": [
					"M277.050 290.633h252.604v228.159h-252.604v-228.159z",
					"M635.585 632.871h252.604v228.159h-252.604v-228.159z",
					"M277.050 632.871h252.604v228.159h-252.604v-228.159z",
					"M1002.268 632.871h252.604v228.159h-252.604v-228.159z",
					"M635.585 290.633h252.604v228.159h-252.604v-228.159z"
				],
				"attrs": [],
				"isMulticolor": false,
				"width": 1456,
				"grid": 0,
				"tags": [
					"comp3"
				]
			},
			"attrs": [],
			"properties": {
				"order": 76,
				"id": 4,
				"prevSize": 32,
				"code": 59658,
				"name": "comp3"
			},
			"setIdx": 0,
			"setId": 32,
			"iconIdx": 10
		},
		{
			"icon": {
				"paths": [
					"M456.317 388.415h244.456v236.307h-244.456v-236.307z",
					"M814.852 54.326h244.456v228.159h-244.456v-228.159z",
					"M456.317 54.326h244.456v228.159h-244.456v-228.159z",
					"M814.852 730.653h244.456v236.307h-244.456v-236.307z"
				],
				"attrs": [],
				"isMulticolor": false,
				"width": 1456,
				"grid": 0,
				"tags": [
					"hotelero"
				]
			},
			"attrs": [],
			"properties": {
				"order": 77,
				"id": 3,
				"prevSize": 32,
				"code": 59659,
				"name": "hotelero"
			},
			"setIdx": 0,
			"setId": 32,
			"iconIdx": 11
		},
		{
			"icon": {
				"paths": [
					"M1034.862 396.564h252.604v228.159h-252.604v-228.159z",
					"M317.792 396.564h252.604v228.159h-252.604v-228.159z",
					"M676.327 738.802h252.604v228.159h-252.604v-228.159z",
					"M317.792 738.802h252.604v228.159h-252.604v-228.159z"
				],
				"attrs": [],
				"isMulticolor": false,
				"width": 1456,
				"grid": 0,
				"tags": [
					"logistico"
				]
			},
			"attrs": [],
			"properties": {
				"order": 78,
				"id": 2,
				"prevSize": 32,
				"code": 59660,
				"name": "logistico"
			},
			"setIdx": 0,
			"setId": 32,
			"iconIdx": 12
		},
		{
			"icon": {
				"paths": [
					"M65.188 46.178h1140.793v40.743h-1140.793v-40.743z",
					"M65.188 331.376h1140.793v40.743h-1140.793v-40.743z",
					"M65.188 616.574h1140.793v40.743h-1140.793v-40.743z",
					"M65.188 901.772h1140.793v40.743h-1140.793v-40.743z"
				],
				"attrs": [],
				"isMulticolor": false,
				"width": 1263,
				"grid": 0,
				"tags": [
					"menu"
				]
			},
			"attrs": [],
			"properties": {
				"order": 79,
				"id": 1,
				"prevSize": 32,
				"code": 59661,
				"name": "menu"
			},
			"setIdx": 0,
			"setId": 32,
			"iconIdx": 13
		},
		{
			"icon": {
				"paths": [
					"M325.941 738.802h252.604v236.307h-252.604v-236.307z",
					"M1043.011 738.802h252.604v236.307h-252.604v-236.307z",
					"M684.476 396.564h252.604v236.307h-252.604v-236.307z",
					"M1043.011 396.564h252.604v236.307h-252.604v-236.307z"
				],
				"attrs": [],
				"isMulticolor": false,
				"width": 1456,
				"grid": 0,
				"tags": [
					"oficcinas"
				]
			},
			"attrs": [],
			"properties": {
				"order": 80,
				"id": 0,
				"prevSize": 32,
				"code": 59662,
				"name": "oficcinas"
			},
			"setIdx": 0,
			"setId": 32,
			"iconIdx": 14
		}
	],
	"height": 1024,
	"metadata": {
		"name": "caboel"
	},
	"preferences": {
		"showGlyphs": true,
		"showQuickUse": true,
		"showQuickUse2": true,
		"showSVGs": true,
		"fontPref": {
			"prefix": "icon-",
			"metadata": {
				"fontFamily": "caboel",
				"majorVersion": 1,
				"minorVersion": 0
			},
			"metrics": {
				"emSize": 1024,
				"baseline": 6.25,
				"whitespace": 50
			},
			"resetPoint": 58880,
			"autoHost": true,
			"embed": false
		},
		"imagePref": {
			"prefix": "icon-",
			"png": true,
			"useClassSelector": true,
			"color": 4473924,
			"bgColor": 16777215,
			"classSelector": ".icon"
		},
		"historySize": 100,
		"showCodes": true,
		"gridSize": 16,
		"quickUsageToken": {
			"Matilda2015": "Y2UyNTM0MDM3ZmFjYjQ1Y2M5ZGRlN2Y0MjhjZWNjOTQjMSMxNDYxOTEyMjYyIyMj"
		}
	}
}