<?xml version="1.0" standalone="no"?>
<!DOCTYPE svg PUBLIC "-//W3C//DTD SVG 1.1//EN" "http://www.w3.org/Graphics/SVG/1.1/DTD/svg11.dtd" >
<svg xmlns="http://www.w3.org/2000/svg">
<metadata>Generated by IcoMoon</metadata>
<defs>
<font id="caboel" horiz-adv-x="1024">
<font-face units-per-em="1024" ascent="960" descent="-64" />
<missing-glyph horiz-adv-x="1024" />
<glyph unicode="&#x20;" horiz-adv-x="512" d="" />
<glyph unicode="&#xe900;" glyph-name="arrow-2-right" horiz-adv-x="1263" d="M1002.268 465.654h-575.628c6.103 40.743 20.583 85.258 20.583 85.258s-66.573-40.995-89.772-54.131c-23.142-13.095-95.615-48.736-95.615-48.736s70.346-34.713 92.755-47.4c23.948-13.543 92.632-57.186 92.632-57.186s-16.688 48.859-21.773 89.601h576.817v32.594z" />
<glyph unicode="&#xe901;" glyph-name="arrow-down" horiz-adv-x="1263" d="M611.139 816.040v-574.348c-32.594 6.103-84.345 20.575-84.345 20.575s41.452-66.573 54.587-89.78c13.095-23.142 48.964-95.615 48.964-95.615s34.835 70.362 47.53 92.755c13.543 23.948 60.397 92.641 60.397 92.641s-53.797-16.672-86.391-21.748v575.522h-40.743z" />
<glyph unicode="&#xe902;" glyph-name="arrow-left" horiz-adv-x="1263" d="M843.184 450.351l-394.771 394.763c-7.888 7.888-20.681 7.888-28.569 0s-7.888-20.681 0-28.561l380.495-380.487-356.62-356.62c-7.896-7.888-7.896-20.673 0-28.561 3.944-3.928 9.11-5.924 14.276-5.924 5.174 0 10.349 1.972 14.284 5.924l370.904 370.904c7.871 7.88 7.871 20.673 0 28.561z" />
<glyph unicode="&#xe903;" glyph-name="arrow-right" horiz-adv-x="1263" d="M419.852 445.649l394.763-394.763c7.88-7.896 20.673-7.896 28.569 0 7.88 7.888 7.88 20.673 0 28.561l-380.495 380.487 356.612 356.62c7.904 7.88 7.904 20.673 0 28.561-3.936 3.936-9.11 5.916-14.276 5.916-5.174 0-10.34-1.972-14.284-5.916l-370.888-370.904c-7.896-7.88-7.896-20.673 0-28.561z" />
<glyph unicode="&#xe904;" glyph-name="arrow-up" horiz-adv-x="1263" d="M660.030 74.525v579.311c32.594-6.103 78.478-20.583 78.478-20.583s-44.401 66.573-57.537 89.772c-13.095 23.142-50.431 95.615-50.431 95.615s-35.568-70.346-48.264-92.746c-13.535-23.957-54.88-92.641-54.88-92.641s59.297 16.688 91.891 21.773v-580.492l40.743-0.008z" />
<glyph unicode="&#xe905;" glyph-name="butt" horiz-adv-x="1263" d="M105.931 921.971v-945.228h1043.010v945.228h-1043.010zM480.763 186.901v473.103l315.12-236.527-315.12-236.576z" />
<glyph unicode="&#xe906;" glyph-name="close" horiz-adv-x="1263" d="M1095.316 880.177l-25.977 25.961-434.935-434.935-434.944 434.944-25.961-25.961 434.935-434.944-434.935-434.935 25.961-25.977 434.944 434.935 434.927-434.935 25.977 25.977-434.935 434.935z" />
<glyph unicode="&#xe907;" glyph-name="comercial" horiz-adv-x="1456" d="M448.169 221.198h244.456v-236.307h-244.456v236.307zM89.634 221.198h244.456v-236.307h-244.456v236.307zM806.703 221.198h252.604v-236.307h-252.604v236.307zM448.169 563.436h244.456v-236.307h-244.456v236.307zM1173.387 221.198h244.456v-236.307h-244.456v236.307z" />
<glyph unicode="&#xe908;" glyph-name="comp1" horiz-adv-x="1456" d="M741.515 335.277h244.456v-236.307h-244.456v236.307zM382.98 335.277h244.456v-236.307h-244.456v236.307zM741.515 685.664h244.456v-236.307h-244.456v236.307z" />
<glyph unicode="&#xe909;" glyph-name="comp2" horiz-adv-x="1456" d="M749.664 669.367h244.456v-228.159h-244.456v228.159zM382.98 327.129h252.604v-228.159h-252.604v228.159z" />
<glyph unicode="&#xe90a;" glyph-name="comp3" horiz-adv-x="1456" d="M277.050 669.367h252.604v-228.159h-252.604v228.159zM635.585 327.129h252.604v-228.159h-252.604v228.159zM277.050 327.129h252.604v-228.159h-252.604v228.159zM1002.268 327.129h252.604v-228.159h-252.604v228.159zM635.585 669.367h252.604v-228.159h-252.604v228.159z" />
<glyph unicode="&#xe90b;" glyph-name="hotelero" horiz-adv-x="1456" d="M456.317 571.585h244.456v-236.307h-244.456v236.307zM814.852 905.674h244.456v-228.159h-244.456v228.159zM456.317 905.674h244.456v-228.159h-244.456v228.159zM814.852 229.347h244.456v-236.307h-244.456v236.307z" />
<glyph unicode="&#xe90c;" glyph-name="logistico" horiz-adv-x="1456" d="M1034.862 563.436h252.604v-228.159h-252.604v228.159zM317.792 563.436h252.604v-228.159h-252.604v228.159zM676.327 221.198h252.604v-228.159h-252.604v228.159zM317.792 221.198h252.604v-228.159h-252.604v228.159z" />
<glyph unicode="&#xe90d;" glyph-name="menu" horiz-adv-x="1263" d="M65.188 913.822h1140.793v-40.743h-1140.793v40.743zM65.188 628.624h1140.793v-40.743h-1140.793v40.743zM65.188 343.426h1140.793v-40.743h-1140.793v40.743zM65.188 58.228h1140.793v-40.743h-1140.793v40.743z" />
<glyph unicode="&#xe90e;" glyph-name="oficcinas" horiz-adv-x="1456" d="M325.941 221.198h252.604v-236.307h-252.604v236.307zM1043.011 221.198h252.604v-236.307h-252.604v236.307zM684.476 563.436h252.604v-236.307h-252.604v236.307zM1043.011 563.436h252.604v-236.307h-252.604v236.307z" />
</font></defs></svg>